…
2.  We can use the following code to transform the current data into min

``` r
flight_time = mutate(flights,
                  dep_time_min =(dep_time %/% 100 * 60 + dep_time %% 100) %% 1440,
                  sched_dep_time_min = (sched_dep_time %/% 100 * 60 + sched_dep_time %% 100) %% 1440)

select(flight_time, dep_time, sched_dep_time, dep_time_min,sched_dep_time_min)
```

    ## # A tibble: 336,776 × 4
    ##    dep_time sched_dep_time dep_time_min sched_dep_time_min
    ##       <int>          <int>        <dbl>              <dbl>
    ##  1      517            515          317                315
    ##  2      533            529          333                329
    ##  3      542            540          342                340
    ##  4      544            545          344                345
    ##  5      554            600          354                360
    ##  6      554            558          354                358
    ##  7      555            600          355                360
    ##  8      557            600          357                360
    ##  9      557            600          357                360
    ## 10      558            600          358                360
    ## # … with 336,766 more rows
…
